%YAML 1.1
%TAG !u! tag:unity3d.com,2011:
--- !u!1045 &1
EditorBuildSettings:
  m_ObjectHideFlags: 0
  serializedVersion: 2
  m_Scenes:
  - enabled: 0
    path: Assets/Scenes/SampleScene.unity
    guid: 2cda990e2423bbf4892e6590ba056729
  - enabled: 1
    path: Assets/Scenes/Menu.unity
    guid: fadec4aac06d66e43a0b24a777f8c88b
  - enabled: 1
    path: Assets/Scenes/Emily Testing.unity
    guid: 78b4192acb4f1e64ba997743908c4b35
  - enabled: 1
    path: Assets/Scenes/Instructions.unity
    guid: af0ac08311ad2e348b6669134adc1952
  m_configObjects: {}
